<?xml version='1.0' encoding='UTF-8' standalone='no'?>
<!-- Created with Fritzing (http://www.fritzing.org/) -->
<svg xmlns="http://www.w3.org/2000/svg" version="1.2"  viewBox="0 0 27.94 25.4" width="1.1in" x="0in" y="0in" baseProfile="tiny" height="1in">
    <desc >
        <referenceFile >FTDI Basic-v13_3.3v_schematic.svg</referenceFile>
    </desc>
    <g id="schematic"  gorn="0.1">
        <rect stroke="#000000"  stroke-width="0.3175" stroke-linecap="round" class="interior rect" width="17.4625" x="5.23875" y="5.23875" fill="#FFFFFF" height="14.9225"/>
        <line x1="22.7365" id="connector8pin" y2="12.7" stroke="#787878"  y1="12.7" stroke-width="0.246944" stroke-linecap="round" class="pin" x2="27.8165" gorn="0.1.1" fill="none"/>
        <text stroke="none"  text-anchor="end" stroke-width="0" font-size="1.23472" class="text" x="22.2426" y="12.9469" font-family="'Droid Sans'" fill="#8c8c8c">TXO</text>
        <rect id="connector8terminal" stroke="none"  stroke-width="0" class="terminal" width="0.246944" x="27.8165" y="12.5765" gorn="0.1.3" fill="none" height="0.246944"/>
        <line x1="22.7365" id="connector7pin" y2="15.24" stroke="#787878"  y1="15.24" stroke-width="0.246944" stroke-linecap="round" class="pin" x2="27.8165" gorn="0.1.4" fill="none"/>
        <text stroke="none"  text-anchor="end" stroke-width="0" font-size="1.23472" class="text" x="22.2426" y="15.4869" font-family="'Droid Sans'" fill="#8c8c8c">RXI</text>
        <rect id="connector7terminal" stroke="none"  stroke-width="0" class="terminal" width="0.246944" x="27.8165" y="15.1165" gorn="0.1.6" fill="none" height="0.246944"/>
        <line x1="0.123472" id="connector10pin" y2="12.7" stroke="#787878"  y1="12.7" stroke-width="0.246944" stroke-linecap="round" class="pin" x2="5.20347" gorn="0.1.7" fill="none"/>
        <text stroke="none"  text-anchor="start" stroke-width="0" font-size="1.23472" class="text" x="5.69736" y="12.9469" font-family="'Droid Sans'" fill="#8c8c8c">CTS</text>
        <rect id="connector10terminal" stroke="none"  stroke-width="0" class="terminal" width="0.246944" x="-0.123472" y="12.5765" gorn="0.1.9" fill="none" height="0.246944"/>
        <line x1="0.123472" id="connector6pin" y2="15.24" stroke="#787878"  y1="15.24" stroke-width="0.246944" stroke-linecap="round" class="pin" x2="5.20347" gorn="0.1.10" fill="none"/>
        <text stroke="none"  text-anchor="start" stroke-width="0" font-size="1.23472" class="text" x="5.69736" y="15.4869" font-family="'Droid Sans'" fill="#8c8c8c">DTR</text>
        <rect id="connector6terminal" stroke="none"  stroke-width="0" class="terminal" width="0.246944" x="-0.123472" y="15.1165" gorn="0.1.12" fill="none" height="0.246944"/>
        <line x1="12.7" id="connector11pin" y2="25.2765" stroke="#787878"  y1="20.1965" stroke-width="0.246944" stroke-linecap="round" class="pin" x2="12.7" gorn="0.1.13" fill="none"/>
        <g  transform="translate(12.9469,19.7026)">
            <g >
                <g >
                    <g >
                        <g >
                            <g  transform="rotate(270)">
                                <g >
                                    <g >
                                        <g >
                                            <g >
                                                <text stroke="none"  text-anchor="start" stroke-width="0" font-size="1.23472" class="text" x="0" y="0" font-family="'Droid Sans'" fill="#8c8c8c">GND</text>
                                            </g>
                                        </g>
                                    </g>
                                </g>
                            </g>
                        </g>
                    </g>
                </g>
            </g>
        </g>
        <rect id="connector11terminal" stroke="none"  stroke-width="0" class="terminal" width="0.246944" x="12.5765" y="25.2765" gorn="0.1.15" fill="none" height="0.246944"/>
        <line x1="12.7" id="connector9pin" y2="5.20347" stroke="#787878"  y1="0.123472" stroke-width="0.246944" stroke-linecap="round" class="pin" x2="12.7" gorn="0.1.16" fill="none"/>
        <g  transform="translate(12.9469,5.69736)">
            <g >
                <g >
                    <g >
                        <g >
                            <g  transform="rotate(270)">
                                <g >
                                    <g >
                                        <g >
                                            <g >
                                                <text stroke="none"  text-anchor="end" stroke-width="0" font-size="1.23472" class="text" x="0" y="0" font-family="'Droid Sans'" fill="#8c8c8c">POWER</text>
                                            </g>
                                        </g>
                                    </g>
                                </g>
                            </g>
                        </g>
                    </g>
                </g>
            </g>
        </g>
        <rect id="connector9terminal" stroke="none"  stroke-width="0" class="terminal" width="0.246944" x="12.5765" y="-0.123472" gorn="0.1.18" fill="none" height="0.246944"/>
        <text id="label" stroke="none"  text-anchor="middle" stroke-width="0" font-size="1.49931" class="text" x="14.1288" y="12.4119" font-family="'Droid Sans'" gorn="0.1.19" fill="#000000">FTDI Basic</text>
        <text id="label" stroke="none"  text-anchor="middle" stroke-width="0" font-size="1.49931" class="text" x="14.1288" y="14.0112" font-family="'Droid Sans'" gorn="0.1.20" fill="#000000">Programmer</text>
    </g>
</svg>
